{
  "status": "success",
  "code": 200,
  "data": [{
    "id": "6336737",
    "payment_number": "6424419",
    "send_currency": "NZD",
    "payout_currency": "HKD",
    "send_amount": "5.00",
    "payout_amount": "27.96",
    "fee_amount": "6.00",
    "status": "Void",
    "created": "2021-06-02 03:40:39",
    "exchange_rate": "5.59160",
    "generated": "0",
    "recipient": {
      "uuid": "60b6fd51-9af0-4187-8b0c-00140a02005f",
      "name": "Becka Brown",
      "type": "Bank Deposit"
    }
  }, {
    "id": "6207389",
    "payment_number": "6295071",
    "send_currency": "AUD",
    "payout_currency": "LKR",
    "send_amount": "36.77",
    "payout_amount": "5500.00",
    "fee_amount": "4.00",
    "status": "Void",
    "created": "2021-04-29 11:31:47",
    "exchange_rate": "149.59440",
    "generated": "0",
    "recipient": {
      "uuid": "608a98fc-9940-4b90-93e3-00220a020912",
      "name": "Dad",
      "type": "Bank Deposit"
    }
  }, {
    "id": "6165693",
    "payment_number": "6253375",
    "send_currency": "AUD",
    "payout_currency": "PHP",
    "send_amount": "5.00",
    "payout_amount": "186.07",
    "fee_amount": "4.00",
    "status": "Void",
    "created": "2021-04-20 10:50:56",
    "exchange_rate": "37.21300",
    "generated": "0",
    "recipient": {
      "uuid": "5fcc7250-4914-4dfc-ac3b-04e90a020af1",
      "name": "Zitong Huang",
      "type": "Cash Pick Up"
    }
  }, {
    "id": "6048121",
    "payment_number": "6135803",
    "send_currency": "AUD",
    "payout_currency": "PHP",
    "send_amount": "5.00",
    "payout_amount": "186.46",
    "fee_amount": "4.00",
    "status": "Void",
    "created": "2021-03-22 20:56:29",
    "exchange_rate": "37.29180",
    "generated": "0",
    "recipient": {
      "uuid": "5fcc7250-4914-4dfc-ac3b-04e90a020af1",
      "name": "Zitong Huang",
      "type": "Cash Pick Up"
    }
  }, {
    "id": "5857065",
    "payment_number": "5944747",
    "send_currency": "NZD",
    "payout_currency": "VND",
    "send_amount": "5.00",
    "payout_amount": "82215.00",
    "fee_amount": "4.00",
    "status": "Void",
    "created": "2021-02-04 00:49:13",
    "exchange_rate": "16443.00000",
    "generated": "0",
    "recipient": {
      "uuid": "5fe2ad4d-50a0-474f-aa06-0cd30a0204a1",
      "name": "Alison Milner",
      "type": "Cash Pick Up"
    }
  }, {
    "id": "5687576",
    "payment_number": "5775258",
    "send_currency": "NZD",
    "payout_currency": "VND",
    "send_amount": "5.00",
    "payout_amount": "81035.00",
    "fee_amount": "4.00",
    "status": "Void",
    "created": "2020-12-23 02:37:10",
    "exchange_rate": "16207.00000",
    "generated": "0",
    "recipient": {
      "uuid": "5fe2ad4d-50a0-474f-aa06-0cd30a0204a1",
      "name": "Alison Milner",
      "type": "Cash Pick Up"
    }
  }, {
    "id": "5687572",
    "payment_number": "5775254",
    "send_currency": "AUD",
    "payout_currency": "FJD",
    "send_amount": "5.00",
    "payout_amount": "7.19",
    "fee_amount": "4.00",
    "status": "Void",
    "created": "2020-12-23 02:36:08",
    "exchange_rate": "1.43790",
    "generated": "0",
    "recipient": {
      "uuid": "5fc9f83c-ae2c-4f6d-a3db-04220a020392",
      "name": "Cameron",
      "type": "Bank Deposit"
    }
  }, {
    "id": "5602036",
    "payment_number": "5689718",
    "send_currency": "AUD",
    "payout_currency": "FJD",
    "send_amount": "5.00",
    "payout_amount": "7.05",
    "fee_amount": "4.00",
    "status": "Void",
    "created": "2020-12-04 09:20:55",
    "exchange_rate": "1.41020",
    "generated": "0",
    "recipient": {
      "uuid": "5fc9f83c-ae2c-4f6d-a3db-04220a020392",
      "name": "Cameron",
      "type": "Bank Deposit"
    }
  }, {
    "id": "5586429",
    "payment_number": "5674111",
    "send_currency": "NZD",
    "payout_currency": "PHP",
    "send_amount": "5.00",
    "payout_amount": "167.51",
    "fee_amount": "6.00",
    "status": "Void",
    "created": "2020-12-01 22:05:36",
    "exchange_rate": "33.50250",
    "generated": "0",
    "recipient": {
      "uuid": "5e34a929-d558-4269-af26-4c1cac110003",
      "name": "Laura Porter",
      "type": "Bank Deposit"
    }
  }, {
    "id": "5496024",
    "payment_number": "5583706",
    "send_currency": "AUD",
    "payout_currency": "PHP",
    "send_amount": "5.00",
    "payout_amount": "175.06",
    "fee_amount": "4.00",
    "status": "Void",
    "created": "2020-11-11 03:22:24",
    "exchange_rate": "35.01270",
    "generated": "0",
    "recipient": {
      "uuid": "5e34a929-d558-4269-af26-4c1cac110003",
      "name": "Laura Porter",
      "type": "Bank Deposit"
    }
  }],
  "pagination": {
    "total": 11,
    "per_page": 10,
    "current_page": 1,
    "last_page": 2,
    "from": 1,
    "to": 10,
    "current_displayed": 10
  }
}
